{
    "valid": false,
    "diff_months": 1,
    "current_page": 1,
    "data": [
        {
            "id": 4461601,
            "user_id": 1,
            "affiliate_id": 1,
            "degree_id": 7,
            "unit_id": 1,
            "breakdown_id": 10,
            "category_id": 8,
            "month_year": "2012-10-01",
            "item": "27446",
            "type": "Planilla",
            "base_wage": "3195.00",
            "seniority_bonus": "3195.00",
            "study_bonus": "639.00",
            "position_bonus": "0.00",
            "border_bonus": "0.00",
            "east_bonus": "0.00",
            "public_security_bonus": "470.00",
            "deceased": "0",
            "natality": "0",
            "lactation": "0",
            "prenatal": "0",
            "subsidy": "0.00",
            "gain": "7499.00",
            "payable_liquid": "5157.20",
            "quotable": "7029.00",
            "retirement_fund": "130.04",
            "mortuary_quota": "45.69",
            "subtotal": null,
            "interest": null,
            "total": "175.73",
            "created_at": "2017-06-02 17:04:59",
            "updated_at": "2017-06-02 17:04:59",
            "deleted_at": null,
            "contribution_type_id": null,
            "valid": true
        }, {}
    ],
    "first_page_url": "http://127.0.0.1/api/v1/affiliate/1/contribution?page=1",
    "from": 1,
    "last_page": 55,
    "last_page_url": "http://127.0.0.1/api/v1/affiliate/1/contribution?page=55",
    "next_page_url": "http://127.0.0.1/api/v1/affiliate/1/contribution?page=2",
    "path": "http://127.0.0.1/api/v1/affiliate/1/contribution",
    "per_page": "3",
    "prev_page_url": null,
    "to": 3,
    "total": 165
}